{
  "name": "k8s_bench",
  "dockerComposeFile": "./compose.yml",
  "service": "k8s_bench",
  "workspaceFolder": "/workspace",
  "shutdownAction": "stopCompose",
  "remoteUser": "vscode",
  "extensions": [
    "streetsidesoftware.code-spell-checker",
    "ms-python.python",
    "eamodio.gitlens"
  ]
}
